/home/javaee/Asztal/Gyakorlas/hoe/web/src/main/java/hu/oe/hoe/web/ValidateHeroRuntimeException.java
/home/javaee/Asztal/Gyakorlas/hoe/web/src/main/java/hu/oe/hoe/web/ApplicationInit.java
/home/javaee/Asztal/Gyakorlas/hoe/web/src/main/java/hu/oe/hoe/web/HeroServlet.java
/home/javaee/Asztal/Gyakorlas/hoe/web/src/main/java/hu/oe/hoe/web/LoginServlet.java
/home/javaee/Asztal/Gyakorlas/hoe/web/src/main/java/hu/oe/hoe/web/UserService.java
/home/javaee/Asztal/Gyakorlas/hoe/web/src/main/java/hu/oe/hoe/web/RegistrationServlet.java
/home/javaee/Asztal/Gyakorlas/hoe/web/src/main/java/hu/oe/hoe/web/HeroService.java
