/home/javaee/Asztal/Gyakorlas/hoe/adatok/src/main/java/hu/oe/hoe/adatok/UserRepository.java
/home/javaee/Asztal/Gyakorlas/hoe/adatok/src/main/java/hu/oe/hoe/adatok/LoginException.java
/home/javaee/Asztal/Gyakorlas/hoe/adatok/src/main/java/hu/oe/hoe/adatok/Hybrid.java
/home/javaee/Asztal/Gyakorlas/hoe/adatok/src/main/java/hu/oe/hoe/adatok/User.java
/home/javaee/Asztal/Gyakorlas/hoe/adatok/src/main/java/hu/oe/hoe/adatok/RegistrationException.java
/home/javaee/Asztal/Gyakorlas/hoe/adatok/src/main/java/hu/oe/hoe/adatok/Species.java
/home/javaee/Asztal/Gyakorlas/hoe/adatok/src/main/java/hu/oe/hoe/adatok/Hero.java
/home/javaee/Asztal/Gyakorlas/hoe/adatok/src/main/java/hu/oe/hoe/adatok/SpeciesRepository.java
/home/javaee/Asztal/Gyakorlas/hoe/adatok/src/main/java/hu/oe/hoe/adatok/HeroRepository.java
